…
marginal # print table
```

Marginal Significance: You described 0 effects with terms related to
‘marginally significant’.

Let’s check how many are in the full set.

``` r
marginal_ps <- module_run(psychsci, "marginal")

marginal_ps$table # print table
```

    #> # A tibble: 105 × 9
    #>    text_id paragraph_id section_id text    page_number paper_id formatted header
    #>      <int>        <int>      <int> <chr>         <int> <chr>    <chr>     <chr> 
    #>  1     130           44         15 Althou…          NA 0956797… NA        "Deta…
    #>  2     141           50         18 A marg…          NA 0956797… NA        "Post…
    #>  3     152           54         19 When w…          NA 0956797… NA        "The …
    #>  4     156           56         20 In tha…          NA 0956797… NA        "Cond…
    #>  5     115           29          7 The Co…          NA 0956797… NA        "Resu…
    #>  6     117           30          6 The tw…          NA 0956797… NA        "Resu…
    #>  7     185           55         14 An omn…          NA 0956797… NA        "Resu…
    #>  8     245           87         28 Furthe…          NA 0956797… NA        ""    
    #>  9     259           89         30 The da…          NA 0956797… NA        "Fig …
    #> 10     168           57         19 Given …          NA 0956797… NA        "Auth…
    #> # ℹ 95 more rows
    #> # ℹ 1 more variable: section_type <chr>
…
